\contentsline {chapter}{\numberline {1}Limit State Design-Introduction}{1}
\contentsline {section}{\numberline {1.1}Reinforced Concrete Codes}{1}
\contentsline {section}{\numberline {1.2}Requirements of Design}{1}
\contentsline {section}{\numberline {1.3}Limit State Method}{2}
\contentsline {section}{\numberline {1.4}Safety Factors}{3}
