\relax 
\@writefile{toc}{\contentsline {chapter}{\numberline {1}Limit State Design-Introduction}{1}}
\@writefile{lof}{\addvspace {10\p@ }}
\@writefile{lot}{\addvspace {10\p@ }}
\@writefile{toc}{\contentsline {section}{\numberline {1.1}Reinforced Concrete Codes}{1}}
\@writefile{toc}{\contentsline {section}{\numberline {1.2}Requirements of Design}{1}}
\@writefile{toc}{\contentsline {section}{\numberline {1.3}Limit State Method}{2}}
\@writefile{toc}{\contentsline {section}{\numberline {1.4}Safety Factors}{3}}
